Forecasting in R
…
Keys

We can also observe that the tourism data set contains 3 keys: Region, State and Purpose.

We can set multiple keys when we construct the tsibble, or after.

## # A tsibble: 179,658 x 8 [1D]
## # Key:       VisitID, StaffID, PatientID [179,658]
##    VisitID StaffID PatientID VisitDate  ICD10_1 ICD10_2 ICD10_3 ClinicCode
##      <dbl>   <dbl>     <dbl> <date>     <chr>   <chr>   <chr>        <dbl>
##  1       1      24         1 2011-08-05 G801    <NA>    <NA>             7
##  2       2      13         1 2013-06-15 G801    <NA>    <NA>            49
##  3       3      36         1 2013-12-28 G801    <NA>    <NA>            42
##  4       4      14         1 2014-10-21 G801    <NA>    <NA>            29
##  5       5      45         1 2015-05-11 G801    <NA>    <NA>            21
##  6       6      40         1 2015-08-31 G801    <NA>    <NA>            47
##  7       7      13         1 2015-09-07 G801    <NA>    <NA>            49
##  8       8      36         1 2016-03-27 G801    <NA>    <NA>            42
##  9       9      42         1 2016-07-28 G801    <NA>    <NA>            35
## 10      10      35         1 2016-11-12 G801    <NA>    <NA>            19
## # ... with 179,648 more rows
…
