…
``` r
collect_metrics(penguin_final) #these collect metrics on the testing data
```

    ## # A tibble: 2 x 3
    ##   .metric  .estimator .estimate
    ##   <chr>    <chr>          <dbl>
    ## 1 accuracy binary         0.940
    ## 2 roc_auc  binary         0.991

``` r
collect_predictions(penguin_final) #this looks at the predictions
```

    ## # A tibble: 83 x 6
    ##    id               .pred_female .pred_male  .row .pred_class sex   
    ##    <chr>                   <dbl>      <dbl> <int> <fct>       <fct> 
    ##  1 train/test split    0.0117       0.988       9 male        male  
    ##  2 train/test split    0.499        0.501      12 male        female
    ##  3 train/test split    0.0000458    1.00       13 male        male  
    ##  4 train/test split    0.985        0.0155     24 female      female
    ##  5 train/test split    0.992        0.00754    26 female      female
    ##  6 train/test split    0.729        0.271      27 female      male  
    ##  7 train/test split    0.0262       0.974      32 male        male  
    ##  8 train/test split    0.415        0.585      42 male        male  
    ##  9 train/test split    0.000236     1.00       44 male        male  
    ## 10 train/test split    0.835        0.165      45 female      female
    ## # ... with 73 more rows
…
