…
#build a ols linear regression
# first we set the modeling engine
lm_spec <- linear_reg() %>% 
        set_engine("lm")
# here we fit a model
lm_fit <- lm_spec %>% 
        fit(weekly_attendance ~.,
            data = nfl_train)

tidy(lm_fit) %>%  arrange(-estimate)
```

    ## # A tibble: 37 x 5
    ##    term              estimate std.error statistic  p.value
    ##    <chr>                <dbl>     <dbl>     <dbl>    <dbl>
    ##  1 team_nameCowboys     6357.      764.      8.32 1.06e-16
    ##  2 team_nameRedskins    6214.      765.      8.12 5.18e-16
    ##  3 team_nameGiants      6018.      759.      7.93 2.47e-15
    ##  4 team_nameJets        4597.      774.      5.94 3.05e- 9
    ##  5 team_nameBroncos     2807.      764.      3.67 2.41e- 4
    ##  6 team_namePanthers    2123.      757.      2.80 5.07e- 3
    ##  7 team_nameChiefs      1783.      754.      2.36 1.81e- 2
    ##  8 team_nameEagles      1767.      761.      2.32 2.02e- 2
    ##  9 team_namePackers     1655.      765.      2.16 3.05e- 2
    ## 10 team_nameDolphins     783.      777.      1.01 3.14e- 1
    ## # ... with 27 more rows
…
