volcano
…
## Parsed with column specification:
## cols(
##   year = col_double(),
##   neem = col_double(),
##   wdc = col_double()
## )

Explore the data

# let's look at the volcano types
volcano %>% 
        count(primary_volcano_type, sort = TRUE)

## # A tibble: 26 x 2
##    primary_volcano_type     n
##    <chr>                <int>
##  1 Stratovolcano          353
##  2 Stratovolcano(es)      107
##  3 Shield                  85
##  4 Volcanic field          71
##  5 Pyroclastic cone(s)     70
##  6 Caldera                 65
##  7 Complex                 46
##  8 Shield(s)               33
##  9 Submarine               27
## 10 Lava dome(s)            26
## # ... with 16 more rows
…
volcano_rec <- recipe(volcano_type ~ ., data = volcano_df) %>% 
        update_role(volcano_number, new_role = "Id") %>% #we want to keep volcano_number in the dataset but it is not a predictor or an outcome. This function scopes it out. 
        step_other(tectonic_settings) %>% #this collapses the levels that are not used very much. 
        step_other(major_rock_1) %>% 
        step_dummy(tectonic_settings, major_rock_1) %>% 
        step_zv(all_predictors()) %>% #removes anything that has zero variance
        step_normalize(all_predictors()) %>% 
        step_smote(volcano_type) # generate new examples of minority class using nearest neighbors. Over samples so that it is balanced.

volcano_prep <- prep(volcano_rec) # actually performs the recipe
juice(volcano_prep) # this shopws what the prep did.

## # A tibble: 1,383 x 14
##    volcano_number latitude longitude elevation volcano_type tectonic_settin~
##             <dbl>    <dbl>     <dbl>     <dbl> <fct>                   <dbl>
##  1         283001   0.618      0.984   -0.875  Shield                 -0.289
##  2         355096  -1.21      -0.830    2.97   Stratovolca~           -0.289
##  3         342080  -0.0153    -1.04     1.50   Stratovolca~           -0.289
##  4         213004   0.746      0.101   -0.131  Other                  -0.289
##  5         321040   0.988     -1.32     1.34   Stratovolca~           -0.289
##  6         283170   0.718      1.06    -0.0992 Stratovolca~           -0.289
##  7         221170  -0.156      0.158   -0.0956 Stratovolca~           -0.289
##  8         221110  -0.0601     0.158   -0.440  Stratovolca~           -0.289
##  9         284160   0.120      1.11    -0.644  Stratovolca~           -0.289
## 10         342100  -0.0165    -1.04     1.35   Stratovolca~           -0.289
## # ... with 1,373 more rows, and 8 more variables:
## #   tectonic_settings_Rift.zone...Oceanic.crust....15.km. <dbl>,
## #   tectonic_settings_Subduction.zone...Continental.crust...25.km. <dbl>,
## #   tectonic_settings_Subduction.zone...Oceanic.crust....15.km. <dbl>,
## #   tectonic_settings_other <dbl>, major_rock_1_Basalt...Picro.Basalt <dbl>,
## #   major_rock_1_Dacite <dbl>,
## #   major_rock_1_Trachybasalt...Tephrite.Basanite <dbl>,
## #   major_rock_1_other <dbl>
…
